{
    "domain": "ds143707.mlab.com",
    "port": 43707,
    "dbname": "dbtest",
    "username": "testuser",
    "password": "pikachu49",
    "models": {
        "person": { "name": "person" },
        "lot": { "name": "lot" },
        "product": { "name": "product" },
        "provider": { "name": "provider" },
        "session": { "name": "session" },
        "user": { "name": "user" },
        "order": { "name": "order" },
        "orderLot": { "name": "orderlot" }
    }
}